module go-starter

go 1.18

require github.com/labstack/gommon v0.3.1

require (
	github.com/mattn/go-colorable v0.1.11 // indirect
	github.com/mattn/go-isatty v0.0.14 // indirect
	github.com/valyala/bytebufferpool v1.0.0 // indirect
	github.com/valyala/fasttemplate v1.2.1 // indirect
	golang.org/x/sys v0.0.0-20211103235746-7861aae1554b // indirect
)
